{
  "definitions": {},
  "$schema": "http://json-schema.org/draft-07/schema#",
  "$id": "http://example.com/root.json",
  "type": "string",
  "title": "The Root Schema",
  "default": "",
  "pattern": "^(.*)$"
}
